﻿<?xml version="1.0" encoding="utf-8"?>
<svg version="1.1" xmlns:xlink="http://www.w3.org/1999/xlink" width="220px" height="100px" xmlns="http://www.w3.org/2000/svg">
  <g transform="matrix(1 0 0 1 -825 -820 )">
    <path d="M 0 94  L 0 0  L 112.878787878787 0  L 220 0  L 220 94  C 220 97.36  217.36 100  214 100  L 6 100  C 2.63999999999999 100  0 97.36  0 94  Z " fill-rule="nonzero" fill="#2196f3" stroke="none" fill-opacity="0.498039215686275" transform="matrix(1 0 0 1 825 820 )" />
  </g>
</svg>