﻿<?xml version="1.0" encoding="utf-8"?>
<svg version="1.1" xmlns:xlink="http://www.w3.org/1999/xlink" width="22px" height="25px" xmlns="http://www.w3.org/2000/svg">
  <g transform="matrix(1 0 0 1 -253 -19 )">
    <path d="M 21.9511111111111 18.75  C 21.9535555555556 18.38134765625  21.8235111111111 18.00439453125  21.5301777777778 17.68994140625  C 20.5856444444444 16.67626953125  18.8183111111111 15.1513671875  18.8183111111111 10.15625  C 18.8183111111111 6.3623046875  16.1548444444444 3.3251953125  12.5634666666667 2.580078125  L 12.5634666666667 1.5625  C 12.5634666666667 0.69970703125  11.8633777777778 0  11 0  C 10.1366222222222 0  9.43653333333333 0.69970703125  9.43653333333333 1.5625  L 9.43653333333333 2.580078125  C 5.84515555555556 3.3251953125  3.18168888888889 6.3623046875  3.18168888888889 10.15625  C 3.18168888888889 15.1513671875  1.41435555555556 16.67626953125  0.469822222222222 17.68994140625  C 0.176488888888889 18.0048828125  0.0464444444444444 18.38134765625  0.0488888888888889 18.75  C 0.0542666666666667 19.55078125  0.683466666666667 20.3125  1.61822222222222 20  L 20.3817777777778 20  C 21.3165333333333 20.3125  21.9462222222222 19.55078125  21.9511111111111 18.75  Z M 18.6496444444444 18  L 3.35035555555556 18  C 4.38777777777778 16.60302734375  5.522 14.33935546875  5.52737777777778 10.1845703125  C 5.52737777777778 10.1748046875  5.52444444444444 10.166015625  5.52444444444444 10.15625  C 5.52444444444444 7.1357421875  7.97573333333333 4.6875  11 4.6875  C 14.0242666666667 4.6875  16.4755555555556 7.1357421875  16.4755555555556 10.15625  C 16.4755555555556 10.166015625  16.4726222222222 10.1748046875  16.4726222222222 10.1845703125  C 16.478 14.33984375  17.6122222222222 16.603515625  18.6496444444444 18  Z M 7.87257777777778 21.875  C 7.87257777777778 23.60107421875  9.27324444444444 25  11 25  C 12.7267555555556 25  14.1274222222222 23.60107421875  14.1274222222222 21.875  L 7.87257777777778 21.875  Z " fill-rule="nonzero" fill="#ffffff" stroke="none" transform="matrix(1 0 0 1 253 19 )" />
  </g>
</svg>