﻿<?xml version="1.0" encoding="utf-8"?>
<svg version="1.1" xmlns:xlink="http://www.w3.org/1999/xlink" width="220px" height="220px" xmlns="http://www.w3.org/2000/svg">
  <defs>
    <linearGradient gradientUnits="userSpaceOnUse" x1="591.1" y1="494.9" x2="808.9" y2="494.9" id="LinearGradient498">
      <stop id="Stop499" stop-color="#4481eb" offset="0" />
      <stop id="Stop500" stop-color="#04befe" offset="1" />
    </linearGradient>
  </defs>
  <g transform="matrix(1 0 0 1 -590 -386 )">
    <path d="M 700 391  C 758.8 391  805 437.2  805 496  C 805 554.8  758.8 601  700 601  C 641.2 601  595 554.8  595 496  C 595 437.2  641.2 391  700 391  Z " fill-rule="nonzero" fill="url(#LinearGradient498)" stroke="none" />
    <path d="M 700 389  C 759.92 389  807 436.08  807 496  C 807 555.92  759.92 603  700 603  C 640.08 603  593 555.92  593 496  C 593 436.08  640.08 389  700 389  Z " stroke-width="6" stroke="#ffffff" fill="none" />
  </g>
</svg>